{
  "name": "_MODNAME_",
  "author": "",
  "description": "",
  "version": "1.0",
  "license": "GNU AGPLv3",
  "icon": "icon.png",
  "banner": "banner.jpg",
  "gameVersion": "1.0",REQUIRED_BY_ALL_PLAYERS(RAFT_ONLY)
  "updateUrl": "https://www._WEBSITENAME_/api/v1/mods/YOUR-MOD-SLUG-HERE/version.txt",
  "isModPermanent": false,
  "excludedFiles": []
}